%!PS-Adobe-3.0 EPSF-3.0
%%Title: ../figures/F107comparison.eps
%%Creator: matplotlib version 1.4.3, http://matplotlib.org/
%%CreationDate: Tue May 26 15:10:02 2015
%%Orientation: portrait
%%BoundingBox: 18 234 594 558
%%EndComments
%%BeginProlog
/mpldict 8 dict def
mpldict begin
/m { moveto } bind def
/l { lineto } bind def
/r { rlineto } bind def
/c { curveto } bind def
/cl { closepath } bind def
/box {
m
1 index 0 r
0 exch r
neg 0 r
cl
} bind def
/clipbox {
box
clip
newpath
} bind def
%!PS-Adobe-3.0 Resource-Font
%%Title: Bitstream Vera Sans
%%Copyright: Copyright (c) 2003 by Bitstream, Inc. All Rights Reserved.
%%Creator: Converted from TrueType to type 3 by PPR
25 dict begin
/_d{bind def}bind def
/_m{moveto}_d
/_l{lineto}_d
/_cl{closepath eofill}_d
/_c{curveto}_d
/_sc{7 -1 roll{setcachedevice}{pop pop pop pop pop pop}ifelse}_d
/_e{exec}_d
/FontName /BitstreamVeraSans-Roman def
/PaintType 0 def
/FontMatrix[.001 0 0 .001 0 0]def
/FontBBox[-183 -236 1287 928]def
/FontType 3 def
/Encoding [ /space /percent /period /zero /one /two /three /four /five /six /seven /eight /nine /F /bracketleft /bracketright /a /c /d /e /f /g /h /i /k /l /m /n /o /p /r /s /t /u /v /w /y /z /minus ] def
/FontInfo 10 dict dup begin
/FamilyName (Bitstream Vera Sans) def
/FullName (Bitstream Vera Sans) def
/Notice (Copyright (c) 2003 by Bitstream, Inc. All Rights Reserved. Bitstream Vera is a trademark of Bitstream, Inc.) def
/Weight (Roman) def
/Version (Release 1.10) def
/ItalicAngle 0.0 def
/isFixedPitch false def
/UnderlinePosition -213 def
/UnderlineThickness 143 def
end readonly def
/CharStrings 39 dict dup begin
/space{318 0 0 0 0 0 _sc
}_d
/percent{{950 0 55 -13 895 742 _sc
727 321 _m
699 321 676 309 660 285 _c
644 261 636 227 636 184 _c
636 142 644 108 660 84 _c
676 60 699 48 727 48 _c
755 48 777 60 793 84 _c
809 108 817 142 817 184 _c
817 226 809 260 793 284 _c
777 308 755 321 727 321 _c
727 383 _m
778 383 819 365 849 329 _c
879 293 895 244 895 184 _c
895 123 879 75 849 40 _c
819 4 778 -13 727 -13 _c
}_e{675 -13 633 4 603 40 _c
573 75 558 123 558 184 _c
558 245 573 293 603 329 _c
633 365 675 383 727 383 _c
223 680 _m
195 680 173 667 157 643 _c
141 619 133 586 133 544 _c
133 500 141 467 157 443 _c
173 419 195 407 223 407 _c
251 407 274 419 290 443 _c
306 467 314 500 314 544 _c
314 586 305 619 289 643 _c
273 667 251 680 223 680 _c
664 742 _m
742 742 _l
286 -13 _l
}_e{208 -13 _l
664 742 _l
223 742 _m
274 742 315 724 346 688 _c
376 652 392 604 392 544 _c
392 482 376 434 346 398 _c
316 362 275 345 223 345 _c
171 345 130 362 100 398 _c
70 434 55 482 55 544 _c
55 604 70 652 100 688 _c
130 724 171 742 223 742 _c
_cl}_e}_d
/period{318 0 107 0 210 124 _sc
107 124 _m
210 124 _l
210 0 _l
107 0 _l
107 124 _l
_cl}_d
/zero{636 0 66 -13 570 742 _sc
318 664 _m
267 664 229 639 203 589 _c
177 539 165 464 165 364 _c
165 264 177 189 203 139 _c
229 89 267 64 318 64 _c
369 64 407 89 433 139 _c
458 189 471 264 471 364 _c
471 464 458 539 433 589 _c
407 639 369 664 318 664 _c
318 742 _m
399 742 461 709 505 645 _c
548 580 570 486 570 364 _c
570 241 548 147 505 83 _c
461 19 399 -13 318 -13 _c
236 -13 173 19 130 83 _c
87 147 66 241 66 364 _c
66 486 87 580 130 645 _c
173 709 236 742 318 742 _c
_cl}_d
/one{636 0 110 0 544 729 _sc
124 83 _m
285 83 _l
285 639 _l
110 604 _l
110 694 _l
284 729 _l
383 729 _l
383 83 _l
544 83 _l
544 0 _l
124 0 _l
124 83 _l
_cl}_d
/two{{636 0 73 0 536 742 _sc
192 83 _m
536 83 _l
536 0 _l
73 0 _l
73 83 _l
110 121 161 173 226 239 _c
290 304 331 346 348 365 _c
380 400 402 430 414 455 _c
426 479 433 504 433 528 _c
433 566 419 598 392 622 _c
365 646 330 659 286 659 _c
255 659 222 653 188 643 _c
154 632 117 616 78 594 _c
78 694 _l
118 710 155 722 189 730 _c
223 738 255 742 284 742 _c
}_e{359 742 419 723 464 685 _c
509 647 532 597 532 534 _c
532 504 526 475 515 449 _c
504 422 484 390 454 354 _c
446 344 420 317 376 272 _c
332 227 271 164 192 83 _c
_cl}_e}_d
/three{{636 0 76 -13 556 742 _sc
406 393 _m
453 383 490 362 516 330 _c
542 298 556 258 556 212 _c
556 140 531 84 482 45 _c
432 6 362 -13 271 -13 _c
240 -13 208 -10 176 -4 _c
144 1 110 10 76 22 _c
76 117 _l
103 101 133 89 166 81 _c
198 73 232 69 268 69 _c
330 69 377 81 409 105 _c
441 129 458 165 458 212 _c
458 254 443 288 413 312 _c
383 336 341 349 287 349 _c
}_e{202 349 _l
202 430 _l
291 430 _l
339 430 376 439 402 459 _c
428 478 441 506 441 543 _c
441 580 427 609 401 629 _c
374 649 336 659 287 659 _c
260 659 231 656 200 650 _c
169 644 135 635 98 623 _c
98 711 _l
135 721 170 729 203 734 _c
235 739 266 742 296 742 _c
370 742 429 725 473 691 _c
517 657 539 611 539 553 _c
539 513 527 479 504 451 _c
481 423 448 403 406 393 _c
_cl}_e}_d
/four{636 0 49 0 580 729 _sc
378 643 _m
129 254 _l
378 254 _l
378 643 _l
352 729 _m
476 729 _l
476 254 _l
580 254 _l
580 172 _l
476 172 _l
476 0 _l
378 0 _l
378 172 _l
49 172 _l
49 267 _l
352 729 _l
_cl}_d
/five{{636 0 77 -13 549 729 _sc
108 729 _m
495 729 _l
495 646 _l
198 646 _l
198 467 _l
212 472 227 476 241 478 _c
255 480 270 482 284 482 _c
365 482 429 459 477 415 _c
525 370 549 310 549 234 _c
549 155 524 94 475 51 _c
426 8 357 -13 269 -13 _c
238 -13 207 -10 175 -6 _c
143 -1 111 6 77 17 _c
77 116 _l
106 100 136 88 168 80 _c
199 72 232 69 267 69 _c
}_e{323 69 368 83 401 113 _c
433 143 450 183 450 234 _c
450 284 433 324 401 354 _c
368 384 323 399 267 399 _c
241 399 214 396 188 390 _c
162 384 135 375 108 363 _c
108 729 _l
_cl}_e}_d
/six{{636 0 70 -13 573 742 _sc
330 404 _m
286 404 251 388 225 358 _c
199 328 186 286 186 234 _c
186 181 199 139 225 109 _c
251 79 286 64 330 64 _c
374 64 409 79 435 109 _c
461 139 474 181 474 234 _c
474 286 461 328 435 358 _c
409 388 374 404 330 404 _c
526 713 _m
526 623 _l
501 635 476 644 451 650 _c
425 656 400 659 376 659 _c
310 659 260 637 226 593 _c
}_e{192 549 172 482 168 394 _c
187 422 211 444 240 459 _c
269 474 301 482 336 482 _c
409 482 467 459 509 415 _c
551 371 573 310 573 234 _c
573 159 550 99 506 54 _c
462 9 403 -13 330 -13 _c
246 -13 181 19 137 83 _c
92 147 70 241 70 364 _c
70 479 97 571 152 639 _c
206 707 280 742 372 742 _c
396 742 421 739 447 735 _c
472 730 498 723 526 713 _c
_cl}_e}_d
/seven{636 0 82 0 551 729 _sc
82 729 _m
551 729 _l
551 687 _l
286 0 _l
183 0 _l
432 646 _l
82 646 _l
82 729 _l
_cl}_d
/eight{{636 0 68 -13 568 742 _sc
318 346 _m
271 346 234 333 207 308 _c
180 283 167 249 167 205 _c
167 161 180 126 207 101 _c
234 76 271 64 318 64 _c
364 64 401 76 428 102 _c
455 127 469 161 469 205 _c
469 249 455 283 429 308 _c
402 333 365 346 318 346 _c
219 388 _m
177 398 144 418 120 447 _c
96 476 85 511 85 553 _c
85 611 105 657 147 691 _c
188 725 245 742 318 742 _c
}_e{390 742 447 725 489 691 _c
530 657 551 611 551 553 _c
551 511 539 476 515 447 _c
491 418 459 398 417 388 _c
464 377 501 355 528 323 _c
554 291 568 251 568 205 _c
568 134 546 80 503 43 _c
459 5 398 -13 318 -13 _c
237 -13 175 5 132 43 _c
89 80 68 134 68 205 _c
68 251 81 291 108 323 _c
134 355 171 377 219 388 _c
183 544 _m
183 506 194 476 218 455 _c
}_e{242 434 275 424 318 424 _c
360 424 393 434 417 455 _c
441 476 453 506 453 544 _c
453 582 441 611 417 632 _c
393 653 360 664 318 664 _c
275 664 242 653 218 632 _c
194 611 183 582 183 544 _c
_cl}_e}_d
/nine{{636 0 63 -13 566 742 _sc
110 15 _m
110 105 _l
134 93 159 84 185 78 _c
210 72 235 69 260 69 _c
324 69 374 90 408 134 _c
442 178 462 244 468 334 _c
448 306 424 284 396 269 _c
367 254 335 247 300 247 _c
226 247 168 269 126 313 _c
84 357 63 417 63 494 _c
63 568 85 628 129 674 _c
173 719 232 742 306 742 _c
390 742 455 709 499 645 _c
543 580 566 486 566 364 _c
}_e{566 248 538 157 484 89 _c
429 21 356 -13 264 -13 _c
239 -13 214 -10 189 -6 _c
163 -2 137 5 110 15 _c
306 324 _m
350 324 385 339 411 369 _c
437 399 450 441 450 494 _c
450 546 437 588 411 618 _c
385 648 350 664 306 664 _c
262 664 227 648 201 618 _c
175 588 162 546 162 494 _c
162 441 175 399 201 369 _c
227 339 262 324 306 324 _c
_cl}_e}_d
/F{575 0 98 0 517 729 _sc
98 729 _m
517 729 _l
517 646 _l
197 646 _l
197 431 _l
486 431 _l
486 348 _l
197 348 _l
197 0 _l
98 0 _l
98 729 _l
_cl}_d
/bracketleft{390 0 86 -131 293 760 _sc
86 760 _m
293 760 _l
293 690 _l
176 690 _l
176 -61 _l
293 -61 _l
293 -131 _l
86 -131 _l
86 760 _l
_cl}_d
/bracketright{390 0 97 -131 304 760 _sc
304 760 _m
304 -131 _l
97 -131 _l
97 -61 _l
214 -61 _l
214 690 _l
97 690 _l
97 760 _l
304 760 _l
_cl}_d
/a{{613 0 60 -13 522 560 _sc
343 275 _m
270 275 220 266 192 250 _c
164 233 150 205 150 165 _c
150 133 160 107 181 89 _c
202 70 231 61 267 61 _c
317 61 357 78 387 114 _c
417 149 432 196 432 255 _c
432 275 _l
343 275 _l
522 312 _m
522 0 _l
432 0 _l
432 83 _l
411 49 385 25 355 10 _c
325 -5 287 -13 243 -13 _c
187 -13 142 2 109 33 _c
76 64 60 106 60 159 _c
}_e{60 220 80 266 122 298 _c
163 329 224 345 306 345 _c
432 345 _l
432 354 _l
432 395 418 427 391 450 _c
364 472 326 484 277 484 _c
245 484 215 480 185 472 _c
155 464 127 453 100 439 _c
100 522 _l
132 534 164 544 195 550 _c
226 556 256 560 286 560 _c
365 560 424 539 463 498 _c
502 457 522 395 522 312 _c
_cl}_e}_d
/c{{550 0 55 -13 488 560 _sc
488 526 _m
488 442 _l
462 456 437 466 411 473 _c
385 480 360 484 334 484 _c
276 484 230 465 198 428 _c
166 391 150 339 150 273 _c
150 206 166 154 198 117 _c
230 80 276 62 334 62 _c
360 62 385 65 411 72 _c
437 79 462 90 488 104 _c
488 21 _l
462 9 436 0 410 -5 _c
383 -10 354 -13 324 -13 _c
242 -13 176 12 128 64 _c
}_e{79 115 55 185 55 273 _c
55 362 79 432 128 483 _c
177 534 244 560 330 560 _c
358 560 385 557 411 551 _c
437 545 463 537 488 526 _c
_cl}_e}_d
/d{{635 0 55 -13 544 760 _sc
454 464 _m
454 760 _l
544 760 _l
544 0 _l
454 0 _l
454 82 _l
435 49 411 25 382 10 _c
353 -5 319 -13 279 -13 _c
213 -13 159 13 117 65 _c
75 117 55 187 55 273 _c
55 359 75 428 117 481 _c
159 533 213 560 279 560 _c
319 560 353 552 382 536 _c
411 520 435 496 454 464 _c
148 273 _m
148 207 161 155 188 117 _c
215 79 253 61 301 61 _c
}_e{348 61 385 79 413 117 _c
440 155 454 207 454 273 _c
454 339 440 390 413 428 _c
385 466 348 485 301 485 _c
253 485 215 466 188 428 _c
161 390 148 339 148 273 _c
_cl}_e}_d
/e{{615 0 55 -13 562 560 _sc
562 296 _m
562 252 _l
149 252 _l
153 190 171 142 205 110 _c
238 78 284 62 344 62 _c
378 62 412 66 444 74 _c
476 82 509 95 541 113 _c
541 28 _l
509 14 476 3 442 -3 _c
408 -9 373 -13 339 -13 _c
251 -13 182 12 131 62 _c
80 112 55 181 55 268 _c
55 357 79 428 127 481 _c
175 533 241 560 323 560 _c
397 560 455 536 498 489 _c
}_e{540 441 562 377 562 296 _c
472 322 _m
471 371 457 410 431 440 _c
404 469 368 484 324 484 _c
274 484 234 469 204 441 _c
174 413 156 373 152 322 _c
472 322 _l
_cl}_e}_d
/f{352 0 23 0 371 760 _sc
371 760 _m
371 685 _l
285 685 _l
253 685 230 678 218 665 _c
205 652 199 629 199 595 _c
199 547 _l
347 547 _l
347 477 _l
199 477 _l
199 0 _l
109 0 _l
109 477 _l
23 477 _l
23 547 _l
109 547 _l
109 585 _l
109 645 123 690 151 718 _c
179 746 224 760 286 760 _c
371 760 _l
_cl}_d
/g{{635 0 55 -207 544 560 _sc
454 280 _m
454 344 440 395 414 431 _c
387 467 349 485 301 485 _c
253 485 215 467 188 431 _c
161 395 148 344 148 280 _c
148 215 161 165 188 129 _c
215 93 253 75 301 75 _c
349 75 387 93 414 129 _c
440 165 454 215 454 280 _c
544 68 _m
544 -24 523 -93 482 -139 _c
440 -184 377 -207 292 -207 _c
260 -207 231 -204 203 -200 _c
175 -195 147 -188 121 -178 _c
}_e{121 -91 _l
147 -105 173 -115 199 -122 _c
225 -129 251 -133 278 -133 _c
336 -133 380 -117 410 -87 _c
439 -56 454 -10 454 52 _c
454 96 _l
435 64 411 40 382 24 _c
353 8 319 0 279 0 _c
211 0 157 25 116 76 _c
75 127 55 195 55 280 _c
55 364 75 432 116 483 _c
157 534 211 560 279 560 _c
319 560 353 552 382 536 _c
411 520 435 496 454 464 _c
454 547 _l
544 547 _l
}_e{544 68 _l
_cl}_e}_d
/h{634 0 91 0 549 760 _sc
549 330 _m
549 0 _l
459 0 _l
459 327 _l
459 379 448 417 428 443 _c
408 469 378 482 338 482 _c
289 482 251 466 223 435 _c
195 404 181 362 181 309 _c
181 0 _l
91 0 _l
91 760 _l
181 760 _l
181 462 _l
202 494 227 519 257 535 _c
286 551 320 560 358 560 _c
420 560 468 540 500 501 _c
532 462 549 405 549 330 _c
_cl}_d
/i{278 0 94 0 184 760 _sc
94 547 _m
184 547 _l
184 0 _l
94 0 _l
94 547 _l
94 760 _m
184 760 _l
184 646 _l
94 646 _l
94 760 _l
_cl}_d
/k{579 0 91 0 576 760 _sc
91 760 _m
181 760 _l
181 311 _l
449 547 _l
564 547 _l
274 291 _l
576 0 _l
459 0 _l
181 267 _l
181 0 _l
91 0 _l
91 760 _l
_cl}_d
/l{278 0 94 0 184 760 _sc
94 760 _m
184 760 _l
184 0 _l
94 0 _l
94 760 _l
_cl}_d
/m{{974 0 91 0 889 560 _sc
520 442 _m
542 482 569 511 600 531 _c
631 550 668 560 711 560 _c
767 560 811 540 842 500 _c
873 460 889 403 889 330 _c
889 0 _l
799 0 _l
799 327 _l
799 379 789 418 771 444 _c
752 469 724 482 686 482 _c
639 482 602 466 575 435 _c
548 404 535 362 535 309 _c
535 0 _l
445 0 _l
445 327 _l
445 379 435 418 417 444 _c
398 469 369 482 331 482 _c
}_e{285 482 248 466 221 435 _c
194 404 181 362 181 309 _c
181 0 _l
91 0 _l
91 547 _l
181 547 _l
181 462 _l
201 495 226 520 255 536 _c
283 552 317 560 357 560 _c
397 560 430 550 458 530 _c
486 510 506 480 520 442 _c
_cl}_e}_d
/n{634 0 91 0 549 560 _sc
549 330 _m
549 0 _l
459 0 _l
459 327 _l
459 379 448 417 428 443 _c
408 469 378 482 338 482 _c
289 482 251 466 223 435 _c
195 404 181 362 181 309 _c
181 0 _l
91 0 _l
91 547 _l
181 547 _l
181 462 _l
202 494 227 519 257 535 _c
286 551 320 560 358 560 _c
420 560 468 540 500 501 _c
532 462 549 405 549 330 _c
_cl}_d
/o{612 0 55 -13 557 560 _sc
306 484 _m
258 484 220 465 192 427 _c
164 389 150 338 150 273 _c
150 207 163 156 191 118 _c
219 80 257 62 306 62 _c
354 62 392 80 420 118 _c
448 156 462 207 462 273 _c
462 337 448 389 420 427 _c
392 465 354 484 306 484 _c
306 560 _m
384 560 445 534 490 484 _c
534 433 557 363 557 273 _c
557 183 534 113 490 63 _c
445 12 384 -13 306 -13 _c
227 -13 165 12 121 63 _c
77 113 55 183 55 273 _c
55 363 77 433 121 484 _c
165 534 227 560 306 560 _c
_cl}_d
/p{{635 0 91 -207 580 560 _sc
181 82 _m
181 -207 _l
91 -207 _l
91 547 _l
181 547 _l
181 464 _l
199 496 223 520 252 536 _c
281 552 316 560 356 560 _c
422 560 476 533 518 481 _c
559 428 580 359 580 273 _c
580 187 559 117 518 65 _c
476 13 422 -13 356 -13 _c
316 -13 281 -5 252 10 _c
223 25 199 49 181 82 _c
487 273 _m
487 339 473 390 446 428 _c
418 466 381 485 334 485 _c
}_e{286 485 249 466 222 428 _c
194 390 181 339 181 273 _c
181 207 194 155 222 117 _c
249 79 286 61 334 61 _c
381 61 418 79 446 117 _c
473 155 487 207 487 273 _c
_cl}_e}_d
/r{411 0 91 0 411 560 _sc
411 463 _m
401 469 390 473 378 476 _c
366 478 353 480 339 480 _c
288 480 249 463 222 430 _c
194 397 181 350 181 288 _c
181 0 _l
91 0 _l
91 547 _l
181 547 _l
181 462 _l
199 495 224 520 254 536 _c
284 552 321 560 365 560 _c
371 560 378 559 386 559 _c
393 558 401 557 411 555 _c
411 463 _l
_cl}_d
/s{{521 0 54 -13 472 560 _sc
443 531 _m
443 446 _l
417 458 391 468 364 475 _c
336 481 308 485 279 485 _c
234 485 200 478 178 464 _c
156 450 145 430 145 403 _c
145 382 153 366 169 354 _c
185 342 217 330 265 320 _c
296 313 _l
360 299 405 279 432 255 _c
458 230 472 195 472 151 _c
472 100 452 60 412 31 _c
372 1 316 -13 246 -13 _c
216 -13 186 -10 154 -5 _c
}_e{122 0 89 8 54 20 _c
54 113 _l
87 95 120 82 152 74 _c
184 65 216 61 248 61 _c
290 61 323 68 346 82 _c
368 96 380 117 380 144 _c
380 168 371 187 355 200 _c
339 213 303 226 247 238 _c
216 245 _l
160 257 119 275 95 299 _c
70 323 58 356 58 399 _c
58 450 76 490 112 518 _c
148 546 200 560 268 560 _c
301 560 332 557 362 552 _c
391 547 418 540 443 531 _c
}_e{_cl}_e}_d
/t{392 0 27 0 368 702 _sc
183 702 _m
183 547 _l
368 547 _l
368 477 _l
183 477 _l
183 180 _l
183 135 189 106 201 94 _c
213 81 238 75 276 75 _c
368 75 _l
368 0 _l
276 0 _l
206 0 158 13 132 39 _c
106 65 93 112 93 180 _c
93 477 _l
27 477 _l
27 547 _l
93 547 _l
93 702 _l
183 702 _l
_cl}_d
/u{634 0 85 -13 543 547 _sc
85 216 _m
85 547 _l
175 547 _l
175 219 _l
175 167 185 129 205 103 _c
225 77 255 64 296 64 _c
344 64 383 79 411 110 _c
439 141 453 183 453 237 _c
453 547 _l
543 547 _l
543 0 _l
453 0 _l
453 84 _l
431 50 405 26 377 10 _c
348 -5 315 -13 277 -13 _c
214 -13 166 6 134 45 _c
101 83 85 140 85 216 _c
_cl}_d
/v{592 0 30 0 562 547 _sc
30 547 _m
125 547 _l
296 88 _l
467 547 _l
562 547 _l
357 0 _l
235 0 _l
30 547 _l
_cl}_d
/w{818 0 42 0 776 547 _sc
42 547 _m
132 547 _l
244 120 _l
356 547 _l
462 547 _l
574 120 _l
686 547 _l
776 547 _l
633 0 _l
527 0 _l
409 448 _l
291 0 _l
185 0 _l
42 547 _l
_cl}_d
/y{592 0 30 -207 562 547 _sc
322 -50 _m
296 -114 271 -157 247 -177 _c
223 -197 191 -207 151 -207 _c
79 -207 _l
79 -132 _l
132 -132 _l
156 -132 175 -126 189 -114 _c
203 -102 218 -75 235 -31 _c
251 9 _l
30 547 _l
125 547 _l
296 119 _l
467 547 _l
562 547 _l
322 -50 _l
_cl}_d
/z{525 0 43 0 482 547 _sc
55 547 _m
482 547 _l
482 465 _l
144 72 _l
482 72 _l
482 0 _l
43 0 _l
43 82 _l
381 475 _l
55 475 _l
55 547 _l
_cl}_d
/minus{838 0 106 272 732 355 _sc
106 355 _m
732 355 _l
732 272 _l
106 272 _l
106 355 _l
_cl}_d
end readonly def

/BuildGlyph
 {exch begin
 CharStrings exch
 2 copy known not{pop /.notdef}if
 true 3 1 roll get exec
 end}_d

/BuildChar {
 1 index /Encoding get exch get
 1 index /BuildGlyph get exec
}_d

FontName currentdict end definefont pop
end
%%EndProlog
mpldict begin
18 234 translate
576 324 0 0 clipbox
gsave
0 0 m
576 0 l
576 324 l
0 324 l
cl
1.000 setgray
fill
grestore
gsave
72 40.5 m
518.4 40.5 l
518.4 291.6 l
72 291.6 l
72 40.5 l
grestore
2.000 setlinewidth
1 setlinejoin
2 setlinecap
[] 0 setdash
1.000 0.000 0.812 setrgbcolor
gsave
446.4 251.1 72 40.5 clipbox
72 53.2197 m
94.32 62.0521 l
116.64 73.1607 l
138.96 84.803 l
161.28 98.3365 l
183.6 112.397 l
205.92 122.567 l
228.24 124.805 l
250.56 123.949 l
272.88 123.065 l
295.2 121.588 l
317.52 120.525 l
339.84 119.65 l
362.16 118.933 l
384.48 118.284 l
406.8 117.798 l
429.12 117.268 l
451.44 116.815 l
473.76 116.466 l
496.08 116.13 l
518.4 115.88 l
stroke
grestore
0.818 0.000 1.000 setrgbcolor
gsave
446.4 251.1 72 40.5 clipbox
72 53.2197 m
94.32 62.0521 l
116.64 73.1607 l
138.96 84.803 l
161.28 98.3365 l
183.6 112.397 l
205.92 122.567 l
228.24 124.805 l
250.56 123.949 l
272.88 123.065 l
295.2 121.588 l
317.52 120.525 l
339.84 119.65 l
362.16 118.933 l
384.48 118.284 l
406.8 117.798 l
429.12 117.268 l
451.44 116.815 l
473.76 116.466 l
496.08 116.13 l
518.4 115.88 l
stroke
grestore
0.447 0.000 1.000 setrgbcolor
gsave
446.4 251.1 72 40.5 clipbox
72 54.8219 m
94.32 63.7742 l
116.64 75.0623 l
138.96 86.9638 l
161.28 100.901 l
183.6 115.568 l
205.92 126.357 l
228.24 128.631 l
250.56 127.181 l
272.88 125.838 l
295.2 124.101 l
317.52 122.853 l
339.84 121.834 l
362.16 120.998 l
384.48 120.248 l
406.8 119.677 l
429.12 119.071 l
451.44 118.55 l
473.76 118.141 l
496.08 117.75 l
518.4 117.451 l
stroke
grestore
0.076 0.000 1.000 setrgbcolor
gsave
446.4 251.1 72 40.5 clipbox
72 50.6201 m
94.32 59.259 l
116.64 70.0835 l
138.96 81.3148 l
161.28 94.2172 l
183.6 107.35 l
205.92 116.561 l
228.24 118.744 l
250.56 118.782 l
272.88 118.617 l
295.2 117.55 l
317.52 116.779 l
339.84 116.133 l
362.16 115.604 l
384.48 115.114 l
406.8 114.765 l
429.12 114.356 l
451.44 114.01 l
473.76 113.757 l
496.08 113.508 l
518.4 113.337 l
stroke
grestore
0.000 0.294 1.000 setrgbcolor
gsave
446.4 251.1 72 40.5 clipbox
72 46.6018 m
94.32 54.9451 l
116.64 65.3426 l
138.96 75.9639 l
161.28 87.9406 l
183.6 99.7378 l
205.92 107.59 l
228.24 109.627 l
250.56 110.895 l
272.88 111.794 l
295.2 111.342 l
317.52 111.011 l
339.84 110.711 l
362.16 110.465 l
384.48 110.216 l
406.8 110.075 l
429.12 109.85 l
451.44 109.667 l
473.76 109.559 l
496.08 109.443 l
518.4 109.392 l
stroke
grestore
0.000 0.665 1.000 setrgbcolor
gsave
446.4 251.1 72 40.5 clipbox
72 43.5008 m
94.32 51.6234 l
116.64 61.6991 l
138.96 71.8703 l
161.28 83.1683 l
183.6 94.013 l
205.92 100.896 l
228.24 102.78 l
250.56 104.872 l
272.88 106.56 l
295.2 106.568 l
317.52 106.568 l
339.84 106.528 l
362.16 106.497 l
384.48 106.43 l
406.8 106.446 l
429.12 106.36 l
451.44 106.301 l
473.76 106.305 l
496.08 106.289 l
518.4 106.33 l
stroke
grestore
0.000 1.000 0.965 setrgbcolor
gsave
446.4 251.1 72 40.5 clipbox
72 42.1565 m
94.32 50.1853 l
116.64 60.126 l
138.96 70.106 l
161.28 81.1182 l
183.6 91.5741 l
205.92 98.0484 l
228.24 99.841 l
250.56 102.267 l
272.88 104.295 l
295.2 104.501 l
317.52 104.643 l
339.84 104.715 l
362.16 104.776 l
384.48 104.788 l
406.8 104.872 l
429.12 104.846 l
451.44 104.84 l
473.76 104.892 l
496.08 104.919 l
518.4 104.999 l
stroke
grestore
0.000 1.000 0.594 setrgbcolor
gsave
446.4 251.1 72 40.5 clipbox
72 149.069 m
94.32 160.698 l
116.64 174.648 l
138.96 188.114 l
161.28 201.567 l
183.6 211.356 l
205.92 212.329 l
228.24 205.903 l
250.56 204.333 l
272.88 205.957 l
295.2 205.526 l
317.52 205.09 l
339.84 204.637 l
362.16 204.229 l
384.48 203.809 l
406.8 203.522 l
429.12 203.132 l
451.44 202.798 l
473.76 202.562 l
496.08 202.319 l
518.4 202.162 l
stroke
grestore
0.000 1.000 0.224 setrgbcolor
gsave
446.4 251.1 72 40.5 clipbox
72 149.069 m
94.32 160.698 l
116.64 174.648 l
138.96 188.114 l
161.28 201.567 l
183.6 211.356 l
205.92 212.329 l
228.24 205.903 l
250.56 204.333 l
272.88 205.957 l
295.2 205.526 l
317.52 205.09 l
339.84 204.637 l
362.16 204.229 l
384.48 203.809 l
406.8 203.522 l
429.12 203.132 l
451.44 202.798 l
473.76 202.562 l
496.08 202.319 l
518.4 202.162 l
stroke
grestore
0.147 1.000 0.000 setrgbcolor
gsave
446.4 251.1 72 40.5 clipbox
72 166.313 m
94.32 178.385 l
116.64 192.821 l
138.96 206.619 l
161.28 220.144 l
183.6 229.46 l
205.92 229.223 l
228.24 221.708 l
250.56 220.079 l
272.88 222.051 l
295.2 221.757 l
317.52 221.403 l
339.84 221.004 l
362.16 220.636 l
384.48 220.246 l
406.8 219.984 l
429.12 219.612 l
451.44 219.293 l
473.76 219.071 l
496.08 218.84 l
518.4 218.694 l
stroke
grestore
0.518 1.000 0.000 setrgbcolor
gsave
446.4 251.1 72 40.5 clipbox
72 184.371 m
94.32 196.93 l
116.64 211.844 l
138.96 225.972 l
161.28 239.543 l
183.6 248.336 l
205.92 246.872 l
228.24 238.088 l
250.56 236.299 l
272.88 238.632 l
295.2 238.475 l
317.52 238.201 l
339.84 237.855 l
362.16 237.525 l
384.48 237.161 l
406.8 236.923 l
429.12 236.565 l
451.44 236.259 l
473.76 236.05 l
496.08 235.828 l
518.4 235.694 l
stroke
grestore
0.888 1.000 0.000 setrgbcolor
gsave
446.4 251.1 72 40.5 clipbox
72 202.792 m
94.32 215.835 l
116.64 231.244 l
138.96 245.666 l
161.28 259.259 l
183.6 267.503 l
205.92 264.749 l
228.24 254.745 l
250.56 252.797 l
272.88 255.487 l
295.2 255.472 l
317.52 255.281 l
339.84 254.989 l
362.16 254.698 l
384.48 254.362 l
406.8 254.149 l
429.12 253.807 l
451.44 253.514 l
473.76 253.319 l
496.08 253.108 l
518.4 252.985 l
stroke
grestore
1.000 0.741 0.000 setrgbcolor
gsave
446.4 251.1 72 40.5 clipbox
72 222.078 m
94.32 235.627 l
116.64 251.555 l
138.96 266.301 l
161.28 279.898 l
183.6 287.509 l
205.92 283.332 l
228.24 271.923 l
250.56 269.825 l
272.88 272.909 l
295.2 273.045 l
317.52 272.941 l
339.84 272.705 l
362.16 272.455 l
384.48 272.147 l
406.8 271.959 l
429.12 271.633 l
451.44 271.353 l
473.76 271.171 l
496.08 270.97 l
518.4 270.858 l
stroke
grestore
1.000 0.371 0.000 setrgbcolor
gsave
446.4 251.1 72 40.5 clipbox
72 61.556 m
94.32 68.8543 l
116.64 77.7114 l
138.96 86.1693 l
161.28 95.387 l
183.6 103.704 l
205.92 108.414 l
228.24 109.032 l
250.56 110.204 l
272.88 111.482 l
295.2 111.504 l
317.52 111.425 l
339.84 111.315 l
362.16 111.26 l
384.48 111.189 l
406.8 111.117 l
429.12 111.09 l
451.44 111.034 l
473.76 111.021 l
496.08 110.907 l
518.4 110.992 l
stroke
grestore
1.000 0.000 0.000 setrgbcolor
gsave
446.4 251.1 72 40.5 clipbox
72 155.932 m
94.32 165.436 l
116.64 176.679 l
138.96 186.95 l
161.28 197.229 l
183.6 204.728 l
205.92 205.871 l
228.24 201.873 l
250.56 201.428 l
272.88 202.993 l
295.2 202.91 l
317.52 202.663 l
339.84 202.373 l
362.16 202.156 l
384.48 201.927 l
406.8 201.706 l
429.12 201.548 l
451.44 201.363 l
473.76 201.237 l
496.08 200.995 l
518.4 201.002 l
stroke
grestore
3.000 setlinewidth
0 setlinecap
[6 6] 0 setdash
0.000 setgray
gsave
446.4 251.1 72 40.5 clipbox
72 124.2 m
518.4 124.2 l
stroke
grestore
1.000 setlinewidth
0 setlinejoin
2 setlinecap
[] 0 setdash
gsave
72 291.6 m
518.4 291.6 l
stroke
grestore
gsave
518.4 40.5 m
518.4 291.6 l
stroke
grestore
gsave
72 40.5 m
518.4 40.5 l
stroke
grestore
gsave
72 40.5 m
72 291.6 l
stroke
grestore
0.500 setlinewidth
1 setlinejoin
0 setlinecap
gsave
/o {
gsave
newpath
translate
0.5 setlinewidth
1 setlinejoin
0 setlinecap
0 0 m
0 4 l
gsave
0.000 setgray
fill
grestore
stroke
grestore
} bind def
72 40.5 o
grestore
gsave
/o {
gsave
newpath
translate
0.5 setlinewidth
1 setlinejoin
0 setlinecap
0 0 m
0 -4 l
gsave
0.000 setgray
fill
grestore
stroke
grestore
} bind def
72 291.6 o
grestore
/BitstreamVeraSans-Roman findfont
10.000 scalefont
setfont
gsave
66.390625 28.906250 translate
0.000000 rotate
0.000000 0.000000 m /nine glyphshow
6.362305 0.000000 m /five glyphshow
grestore
gsave
/o {
gsave
newpath
translate
0.5 setlinewidth
1 setlinejoin
0 setlinecap
0 0 m
0 4 l
gsave
0.000 setgray
fill
grestore
stroke
grestore
} bind def
183.6 40.5 o
grestore
gsave
/o {
gsave
newpath
translate
0.5 setlinewidth
1 setlinejoin
0 setlinecap
0 0 m
0 -4 l
gsave
0.000 setgray
fill
grestore
stroke
grestore
} bind def
183.6 291.6 o
grestore
gsave
174.935937 28.906250 translate
0.000000 rotate
0.000000 0.000000 m /one glyphshow
6.362305 0.000000 m /zero glyphshow
12.724609 0.000000 m /zero glyphshow
grestore
gsave
/o {
gsave
newpath
translate
0.5 setlinewidth
1 setlinejoin
0 setlinecap
0 0 m
0 4 l
gsave
0.000 setgray
fill
grestore
stroke
grestore
} bind def
295.2 40.5 o
grestore
gsave
/o {
gsave
newpath
translate
0.5 setlinewidth
1 setlinejoin
0 setlinecap
0 0 m
0 -4 l
gsave
0.000 setgray
fill
grestore
stroke
grestore
} bind def
295.2 291.6 o
grestore
gsave
286.645312 28.906250 translate
0.000000 rotate
0.000000 0.000000 m /one glyphshow
6.362305 0.000000 m /zero glyphshow
12.724609 0.000000 m /five glyphshow
grestore
gsave
/o {
gsave
newpath
translate
0.5 setlinewidth
1 setlinejoin
0 setlinecap
0 0 m
0 4 l
gsave
0.000 setgray
fill
grestore
stroke
grestore
} bind def
406.8 40.5 o
grestore
gsave
/o {
gsave
newpath
translate
0.5 setlinewidth
1 setlinejoin
0 setlinecap
0 0 m
0 -4 l
gsave
0.000 setgray
fill
grestore
stroke
grestore
} bind def
406.8 291.6 o
grestore
gsave
398.135937 28.906250 translate
0.000000 rotate
0.000000 0.000000 m /one glyphshow
6.362305 0.000000 m /one glyphshow
12.724609 0.000000 m /zero glyphshow
grestore
gsave
/o {
gsave
newpath
translate
0.5 setlinewidth
1 setlinejoin
0 setlinecap
0 0 m
0 4 l
gsave
0.000 setgray
fill
grestore
stroke
grestore
} bind def
518.4 40.5 o
grestore
gsave
/o {
gsave
newpath
translate
0.5 setlinewidth
1 setlinejoin
0 setlinecap
0 0 m
0 -4 l
gsave
0.000 setgray
fill
grestore
stroke
grestore
} bind def
518.4 291.6 o
grestore
gsave
509.845313 28.906250 translate
0.000000 rotate
0.000000 0.000000 m /one glyphshow
6.362305 0.000000 m /one glyphshow
12.724609 0.000000 m /five glyphshow
grestore
gsave
249.840625 14.234375 translate
0.000000 rotate
0.000000 0.000000 m /z glyphshow
5.249023 0.000000 m /e glyphshow
11.401367 0.000000 m /n glyphshow
17.739258 0.000000 m /i glyphshow
20.517578 0.000000 m /t glyphshow
24.438477 0.000000 m /h glyphshow
30.776367 0.000000 m /space glyphshow
33.955078 0.000000 m /a glyphshow
40.083008 0.000000 m /n glyphshow
46.420898 0.000000 m /g glyphshow
52.768555 0.000000 m /l glyphshow
55.546875 0.000000 m /e glyphshow
61.699219 0.000000 m /space glyphshow
64.877930 0.000000 m /bracketleft glyphshow
68.779297 0.000000 m /d glyphshow
75.126953 0.000000 m /e glyphshow
81.279297 0.000000 m /g glyphshow
87.626953 0.000000 m /bracketright glyphshow
grestore
gsave
/o {
gsave
newpath
translate
0.5 setlinewidth
1 setlinejoin
0 setlinecap
0 0 m
4 0 l
gsave
0.000 setgray
fill
grestore
stroke
grestore
} bind def
72 40.5 o
grestore
gsave
/o {
gsave
newpath
translate
0.5 setlinewidth
1 setlinejoin
0 setlinecap
0 0 m
-4 0 l
gsave
0.000 setgray
fill
grestore
stroke
grestore
} bind def
518.4 40.5 o
grestore
gsave
48.625000 37.742187 translate
0.000000 rotate
0.000000 0.000000 m /minus glyphshow
8.378906 0.000000 m /two glyphshow
14.741211 0.000000 m /zero glyphshow
grestore
gsave
/o {
gsave
newpath
translate
0.5 setlinewidth
1 setlinejoin
0 setlinecap
0 0 m
4 0 l
gsave
0.000 setgray
fill
grestore
stroke
grestore
} bind def
72 82.35 o
grestore
gsave
/o {
gsave
newpath
translate
0.5 setlinewidth
1 setlinejoin
0 setlinecap
0 0 m
-4 0 l
gsave
0.000 setgray
fill
grestore
stroke
grestore
} bind def
518.4 82.35 o
grestore
gsave
48.625000 79.592187 translate
0.000000 rotate
0.000000 0.000000 m /minus glyphshow
8.378906 0.000000 m /one glyphshow
14.741211 0.000000 m /zero glyphshow
grestore
gsave
/o {
gsave
newpath
translate
0.5 setlinewidth
1 setlinejoin
0 setlinecap
0 0 m
4 0 l
gsave
0.000 setgray
fill
grestore
stroke
grestore
} bind def
72 124.2 o
grestore
gsave
/o {
gsave
newpath
translate
0.5 setlinewidth
1 setlinejoin
0 setlinecap
0 0 m
-4 0 l
gsave
0.000 setgray
fill
grestore
stroke
grestore
} bind def
518.4 124.2 o
grestore
gsave
62.953125 121.442188 translate
0.000000 rotate
0.000000 0.000000 m /zero glyphshow
grestore
gsave
/o {
gsave
newpath
translate
0.5 setlinewidth
1 setlinejoin
0 setlinecap
0 0 m
4 0 l
gsave
0.000 setgray
fill
grestore
stroke
grestore
} bind def
72 166.05 o
grestore
gsave
/o {
gsave
newpath
translate
0.5 setlinewidth
1 setlinejoin
0 setlinecap
0 0 m
-4 0 l
gsave
0.000 setgray
fill
grestore
stroke
grestore
} bind def
518.4 166.05 o
grestore
gsave
57.031250 163.292188 translate
0.000000 rotate
0.000000 0.000000 m /one glyphshow
6.362305 0.000000 m /zero glyphshow
grestore
gsave
/o {
gsave
newpath
translate
0.5 setlinewidth
1 setlinejoin
0 setlinecap
0 0 m
4 0 l
gsave
0.000 setgray
fill
grestore
stroke
grestore
} bind def
72 207.9 o
grestore
gsave
/o {
gsave
newpath
translate
0.5 setlinewidth
1 setlinejoin
0 setlinecap
0 0 m
-4 0 l
gsave
0.000 setgray
fill
grestore
stroke
grestore
} bind def
518.4 207.9 o
grestore
gsave
56.671875 205.142188 translate
0.000000 rotate
0.000000 0.000000 m /two glyphshow
6.362305 0.000000 m /zero glyphshow
grestore
gsave
/o {
gsave
newpath
translate
0.5 setlinewidth
1 setlinejoin
0 setlinecap
0 0 m
4 0 l
gsave
0.000 setgray
fill
grestore
stroke
grestore
} bind def
72 249.75 o
grestore
gsave
/o {
gsave
newpath
translate
0.5 setlinewidth
1 setlinejoin
0 setlinecap
0 0 m
-4 0 l
gsave
0.000 setgray
fill
grestore
stroke
grestore
} bind def
518.4 249.75 o
grestore
gsave
56.703125 246.992188 translate
0.000000 rotate
0.000000 0.000000 m /three glyphshow
6.362305 0.000000 m /zero glyphshow
grestore
gsave
/o {
gsave
newpath
translate
0.5 setlinewidth
1 setlinejoin
0 setlinecap
0 0 m
4 0 l
gsave
0.000 setgray
fill
grestore
stroke
grestore
} bind def
72 291.6 o
grestore
gsave
/o {
gsave
newpath
translate
0.5 setlinewidth
1 setlinejoin
0 setlinecap
0 0 m
-4 0 l
gsave
0.000 setgray
fill
grestore
stroke
grestore
} bind def
518.4 291.6 o
grestore
gsave
56.421875 288.842188 translate
0.000000 rotate
0.000000 0.000000 m /four glyphshow
6.362305 0.000000 m /zero glyphshow
grestore
gsave
41.546875 110.331250 translate
90.000000 rotate
0.000000 0.000000 m /p glyphshow
6.347656 0.000000 m /e glyphshow
12.500000 0.000000 m /r glyphshow
16.361328 0.000000 m /c glyphshow
21.859375 0.000000 m /e glyphshow
28.011719 0.000000 m /n glyphshow
34.349609 0.000000 m /t glyphshow
38.270508 0.000000 m /space glyphshow
41.449219 0.000000 m /d glyphshow
47.796875 0.000000 m /i glyphshow
50.575195 0.000000 m /f glyphshow
54.095703 0.000000 m /f glyphshow
57.616211 0.000000 m /e glyphshow
63.768555 0.000000 m /r glyphshow
67.629883 0.000000 m /e glyphshow
73.782227 0.000000 m /n glyphshow
80.120117 0.000000 m /c glyphshow
85.618164 0.000000 m /e glyphshow
91.770508 0.000000 m /space glyphshow
94.949219 0.000000 m /bracketleft glyphshow
98.850586 0.000000 m /percent glyphshow
108.352539 0.000000 m /bracketright glyphshow
grestore
/BitstreamVeraSans-Roman findfont
12.000 scalefont
setfont
gsave
129.723437 296.600000 translate
0.000000 rotate
0.000000 0.000000 m /c glyphshow
6.597656 0.000000 m /o glyphshow
13.939453 0.000000 m /m glyphshow
25.628906 0.000000 m /p glyphshow
33.246094 0.000000 m /a glyphshow
40.599609 0.000000 m /r glyphshow
45.533203 0.000000 m /i glyphshow
48.867188 0.000000 m /s glyphshow
55.119141 0.000000 m /o glyphshow
62.460938 0.000000 m /n glyphshow
70.066406 0.000000 m /space glyphshow
73.880859 0.000000 m /o glyphshow
81.222656 0.000000 m /f glyphshow
85.447266 0.000000 m /space glyphshow
89.261719 0.000000 m /m glyphshow
100.951172 0.000000 m /a glyphshow
108.304688 0.000000 m /r glyphshow
113.238281 0.000000 m /k glyphshow
119.812500 0.000000 m /o glyphshow
127.154297 0.000000 m /v glyphshow
134.255859 0.000000 m /space glyphshow
138.070312 0.000000 m /a glyphshow
145.423828 0.000000 m /n glyphshow
153.029297 0.000000 m /d glyphshow
160.646484 0.000000 m /space glyphshow
164.460938 0.000000 m /f glyphshow
168.685547 0.000000 m /e glyphshow
176.068359 0.000000 m /a glyphshow
183.421875 0.000000 m /u glyphshow
191.027344 0.000000 m /t glyphshow
195.732422 0.000000 m /r glyphshow
200.666016 0.000000 m /i glyphshow
204.000000 0.000000 m /e glyphshow
211.382812 0.000000 m /r glyphshow
216.316406 0.000000 m /space glyphshow
220.130859 0.000000 m /w glyphshow
229.945312 0.000000 m /i glyphshow
233.279297 0.000000 m /t glyphshow
237.984375 0.000000 m /h glyphshow
245.589844 0.000000 m /space glyphshow
249.404297 0.000000 m /v glyphshow
256.505859 0.000000 m /a glyphshow
263.859375 0.000000 m /r glyphshow
268.792969 0.000000 m /y glyphshow
275.894531 0.000000 m /i glyphshow
279.228516 0.000000 m /n glyphshow
286.833984 0.000000 m /g glyphshow
294.451172 0.000000 m /space glyphshow
298.265625 0.000000 m /F glyphshow
305.167969 0.000000 m /one glyphshow
312.802734 0.000000 m /zero glyphshow
320.437500 0.000000 m /period glyphshow
324.251953 0.000000 m /seven glyphshow
grestore
1.000 setlinewidth
0 setlinejoin
gsave
436.809 24.2266 m
512.4 24.2266 l
512.4 307.873 l
436.809 307.873 l
cl
gsave
1.000 setgray
fill
grestore
stroke
grestore
/BitstreamVeraSans-Roman findfont
10.000 scalefont
setfont
gsave
461.510938 295.479688 translate
0.000000 rotate
0.000000 0.000000 m /F glyphshow
5.751953 0.000000 m /one glyphshow
12.114258 0.000000 m /zero glyphshow
18.476562 0.000000 m /period glyphshow
21.655273 0.000000 m /seven glyphshow
grestore
2.000 setlinewidth
1 setlinejoin
2 setlinecap
1.000 0.000 0.812 setrgbcolor
gsave
445.209 282.477 m
462.009 282.477 l
stroke
grestore
0.000 setgray
/BitstreamVeraSans-Roman findfont
12.000 scalefont
setfont
gsave
475.209375 278.276563 translate
0.000000 rotate
0.000000 0.000000 m /five glyphshow
7.634766 0.000000 m /zero glyphshow
15.269531 0.000000 m /period glyphshow
19.083984 0.000000 m /zero glyphshow
grestore
0.818 0.000 1.000 setrgbcolor
gsave
445.209 264.852 m
462.009 264.852 l
stroke
grestore
0.000 setgray
gsave
475.209375 260.651563 translate
0.000000 rotate
0.000000 0.000000 m /six glyphshow
7.634766 0.000000 m /two glyphshow
15.269531 0.000000 m /period glyphshow
19.083984 0.000000 m /five glyphshow
grestore
0.447 0.000 1.000 setrgbcolor
gsave
445.209 247.227 m
462.009 247.227 l
stroke
grestore
0.000 setgray
gsave
475.209375 243.026563 translate
0.000000 rotate
0.000000 0.000000 m /seven glyphshow
7.634766 0.000000 m /five glyphshow
15.269531 0.000000 m /period glyphshow
19.083984 0.000000 m /zero glyphshow
grestore
0.076 0.000 1.000 setrgbcolor
gsave
445.209 229.602 m
462.009 229.602 l
stroke
grestore
0.000 setgray
gsave
475.209375 225.401563 translate
0.000000 rotate
0.000000 0.000000 m /eight glyphshow
7.634766 0.000000 m /seven glyphshow
15.269531 0.000000 m /period glyphshow
19.083984 0.000000 m /five glyphshow
grestore
0.000 0.294 1.000 setrgbcolor
gsave
445.209 211.977 m
462.009 211.977 l
stroke
grestore
0.000 setgray
gsave
475.209375 207.776563 translate
0.000000 rotate
0.000000 0.000000 m /one glyphshow
7.634766 0.000000 m /zero glyphshow
15.269531 0.000000 m /zero glyphshow
22.904297 0.000000 m /period glyphshow
26.718750 0.000000 m /zero glyphshow
grestore
0.000 0.665 1.000 setrgbcolor
gsave
445.209 194.352 m
462.009 194.352 l
stroke
grestore
0.000 setgray
gsave
475.209375 190.151563 translate
0.000000 rotate
0.000000 0.000000 m /one glyphshow
7.634766 0.000000 m /one glyphshow
15.269531 0.000000 m /zero glyphshow
22.904297 0.000000 m /period glyphshow
26.718750 0.000000 m /zero glyphshow
grestore
0.000 1.000 0.965 setrgbcolor
gsave
445.209 176.727 m
462.009 176.727 l
stroke
grestore
0.000 setgray
gsave
475.209375 172.526563 translate
0.000000 rotate
0.000000 0.000000 m /one glyphshow
7.634766 0.000000 m /one glyphshow
15.269531 0.000000 m /four glyphshow
22.904297 0.000000 m /period glyphshow
26.718750 0.000000 m /four glyphshow
grestore
0.000 1.000 0.594 setrgbcolor
gsave
445.209 159.102 m
462.009 159.102 l
stroke
grestore
0.000 setgray
gsave
475.209375 154.901563 translate
0.000000 rotate
0.000000 0.000000 m /one glyphshow
7.634766 0.000000 m /one glyphshow
15.269531 0.000000 m /eight glyphshow
22.904297 0.000000 m /period glyphshow
26.718750 0.000000 m /nine glyphshow
grestore
0.000 1.000 0.224 setrgbcolor
gsave
445.209 141.477 m
462.009 141.477 l
stroke
grestore
0.000 setgray
gsave
475.209375 137.276563 translate
0.000000 rotate
0.000000 0.000000 m /one glyphshow
7.634766 0.000000 m /two glyphshow
15.269531 0.000000 m /three glyphshow
22.904297 0.000000 m /period glyphshow
26.718750 0.000000 m /three glyphshow
grestore
0.147 1.000 0.000 setrgbcolor
gsave
445.209 123.852 m
462.009 123.852 l
stroke
grestore
0.000 setgray
gsave
475.209375 119.651563 translate
0.000000 rotate
0.000000 0.000000 m /one glyphshow
7.634766 0.000000 m /two glyphshow
15.269531 0.000000 m /seven glyphshow
22.904297 0.000000 m /period glyphshow
26.718750 0.000000 m /eight glyphshow
grestore
0.518 1.000 0.000 setrgbcolor
gsave
445.209 106.227 m
462.009 106.227 l
stroke
grestore
0.000 setgray
gsave
475.209375 102.026563 translate
0.000000 rotate
0.000000 0.000000 m /one glyphshow
7.634766 0.000000 m /three glyphshow
15.269531 0.000000 m /two glyphshow
22.904297 0.000000 m /period glyphshow
26.718750 0.000000 m /two glyphshow
grestore
0.888 1.000 0.000 setrgbcolor
gsave
445.209 88.6016 m
462.009 88.6016 l
stroke
grestore
0.000 setgray
gsave
475.209375 84.401563 translate
0.000000 rotate
0.000000 0.000000 m /one glyphshow
7.634766 0.000000 m /three glyphshow
15.269531 0.000000 m /six glyphshow
22.904297 0.000000 m /period glyphshow
26.718750 0.000000 m /seven glyphshow
grestore
1.000 0.741 0.000 setrgbcolor
gsave
445.209 70.9766 m
462.009 70.9766 l
stroke
grestore
0.000 setgray
gsave
475.209375 66.776563 translate
0.000000 rotate
0.000000 0.000000 m /one glyphshow
7.634766 0.000000 m /four glyphshow
15.269531 0.000000 m /one glyphshow
22.904297 0.000000 m /period glyphshow
26.718750 0.000000 m /one glyphshow
grestore
1.000 0.371 0.000 setrgbcolor
gsave
445.209 53.3516 m
462.009 53.3516 l
stroke
grestore
0.000 setgray
gsave
475.209375 49.151563 translate
0.000000 rotate
0.000000 0.000000 m /one glyphshow
7.634766 0.000000 m /four glyphshow
15.269531 0.000000 m /five glyphshow
22.904297 0.000000 m /period glyphshow
26.718750 0.000000 m /six glyphshow
grestore
1.000 0.000 0.000 setrgbcolor
gsave
445.209 35.7266 m
462.009 35.7266 l
stroke
grestore
0.000 setgray
gsave
475.209375 31.526563 translate
0.000000 rotate
0.000000 0.000000 m /one glyphshow
7.634766 0.000000 m /five glyphshow
15.269531 0.000000 m /zero glyphshow
22.904297 0.000000 m /period glyphshow
26.718750 0.000000 m /zero glyphshow
grestore

end
showpage
